module github.com/k8scat/repot

go 1.16

require (
	github.com/davecgh/go-spew v1.1.1 // indirect
	github.com/kr/text v0.2.0 // indirect
	github.com/stretchr/testify v1.7.0
	github.com/tidwall/gjson v1.8.0
	gopkg.in/check.v1 v1.0.0-20201130134442-10cb98267c6c // indirect
)
